/* XPM */
static char *c66f6d69baef4374f09fd3fddf004f6b[] = {
/* columns rows colors chars-per-pixel */
"20 20 36 1 ",
"  c #CC1B1E",
". c #CD1C1E",
"X c #D31A1C",
"o c #CB1D20",
"O c #CD1D20",
"+ c #CE2224",
"@ c #D52527",
"# c #DA2123",
"$ c #DC292B",
"% c #E22627",
"& c #E22E2F",
"* c #EA2A2A",
"= c #EA3131",
"- c #EF3131",
"; c #E53B3D",
": c #F03636",
"> c #F43A3A",
", c #F73E3E",
"< c #F94242",
"1 c #F94646",
"2 c #F94B4B",
"3 c #F95050",
"4 c #FA5454",
"5 c #FA5959",
"6 c #FA5D5D",
"7 c #FB6262",
"8 c #FA6767",
"9 c #FB6D6D",
"0 c #FB7373",
"q c #FC7A7A",
"w c #FB8484",
"e c #FA8E8E",
"r c #F29899",
"t c #FB9999",
"y c #FAC2C2",
"u c None",
/* pixels */
"uuuuuuuuuuuuuuuuuuuu",
"uuuuu uuuuuuuu uuuuu",
"uu#yyyyyXuu+yyyyyXuu",
"uoeettttr..ttttteeou",
"u$900qqwq55qqqq008&u",
"u;5677899879997764;u",
"O;1345677777665431:O",
"O=<12345677655321,=O",
"u&>,123455554321,:&u",
"u@:,<<123443211<,=@u",
"u &>,1123333221,>& u",
"uu@=><12223221<>=+uu",
"uuu@=:,<1121<,:&@uuu",
"uuuu@=:><<<<>:&@uuuu",
"uuuuu@&::>>:-&@uuuuu",
"uuuuuu@*----%@uuuuuu",
"uuuuuuu#%***@uuuuuuu",
"uuuuuuuu.#X.uuuuuuuu",
"uuuuuuuuuuuuuuuuuuuu",
"uuuuuuuuuuuuuuuuuuuu"
};
